-0.255000 0.785000 0 0 0 0 0 0 0 0 0.308326
-0.245000 0.800000 0 0 0 0 0 0 0 0 0.296546
-0.220000 0.750000 0 0 0 0 0 0 0 0 0.325750
-0.270000 0.800000 0 0 0 0 0 0 0 0 0.302690
-0.295000 0.805000 0 0 0 0 0 0 0 0 0.291199
-0.270000 0.765000 0 0 0 0 0 0 0 0 0.295122
-0.255000 0.835000 0 0 0 0 0 0 0 0 0.315265
-0.250000 0.780000 0 0 0 0 0 0 0 0 0.305249
-0.255000 0.770000 0 0 0 0 0 0 0 0 0.311383
-0.285000 0.765000 0 0 0 0 0 0 0 0 0.296149
-0.240000 0.785000 0 0 0 0 0 0 0 0 0.314572
-0.240000 0.755000 0 0 0 0 0 0 0 0 0.305207
-0.210000 0.775000 0 0 0 0 0 0 0 0 0.318633
-0.195000 0.815000 0 0 0 0 0 0 0 0 0.305087
-0.270000 0.825000 0 0 0 0 0 0 0 0 0.314407
-0.245000 0.725000 0 0 0 0 0 0 0 0 0.328876
-0.225000 0.845000 0 0 0 0 0 0 0 0 0.309219
-0.200000 0.800000 0 0 0 0 0 0 0 0 0.313161
-0.255000 0.795000 0 0 0 0 0 0 0 0 0.304751
-0.195000 0.810000 0 0 0 0 0 0 0 0 0.307251
-0.200000 0.750000 0 0 0 0 0 0 0 0 0.314892
-0.175000 0.800000 0 0 0 0 0 0 0 0 0.335710
0.085000 0.750000 -0.170000 0.745000 0 0 0 0 0 0 0.349810
0.075000 0.710000 -0.230000 0.700000 0 0 0 0 0 0 0.342079
0.100000 0.720000 -0.235000 0.710000 0 0 0 0 0 0 0.342368
0.020000 0.675000 -0.180000 0.680000 0 0 0 0 0 0 0.354909
0.025000 0.800000 -0.230000 0.820000 0 0 0 0 0 0 0.328012
0.025000 0.725000 -0.265000 0.735000 0 0 0 0 0 0 0.330821
0.030000 0.730000 -0.185000 0.730000 0 0 0 0 0 0 0.356670
0.060000 0.765000 -0.190000 0.775000 0 0 0 0 0 0 0.342440
0.015000 0.700000 -0.245000 0.675000 0 0 0 0 0 0 0.352464
0.080000 0.885000 -0.240000 0.870000 0 0 0 0 0 0 0.327287
0.050000 0.920000 -0.280000 0.910000 0 0 0 0 0 0 0.326094
0.015000 0.720000 -0.235000 0.705000 0 0 0 0 0 0 0.345765
0.040000 0.815000 -0.240000 0.810000 0 0 0 0 0 0 0.346617
0.030000 0.725000 -0.250000 0.710000 0 0 0 0 0 0 0.339166
0.035000 0.850000 -0.245000 0.830000 0 0 0 0 0 0 0.335421
0.040000 0.720000 -0.230000 0.710000 0 0 0 0 0 0 0.348575
0.060000 0.735000 -0.225000 0.760000 0 0 0 0 0 0 0.326959
0.070000 0.900000 -0.225000 0.900000 0 0 0 0 0 0 0.339739
0.015000 0.825000 -0.215000 0.815000 0 0 0 0 0 0 0.327003
0.100000 0.830000 -0.215000 0.830000 0 0 0 0 0 0 0.325346
-0.015000 0.725000 -0.225000 0.715000 0 0 0 0 0 0 0.355272
0.035000 0.870000 -0.230000 0.850000 0 0 0 0 0 0 0.315336
0.120000 0.750000 -0.110000 0.780000 -0.525000 0.335000 0 0 0 0 0.344063
0.095000 0.750000 -0.130000 0.780000 -0.545000 0.340000 0 0 0 0 0.345649
0.110000 0.765000 -0.095000 0.780000 -0.505000 0.365000 0 0 0 0 0.365886
0.135000 0.815000 -0.055000 0.805000 -0.510000 0.395000 0 0 0 0 0.358066
0.085000 0.810000 -0.140000 0.800000 -0.540000 0.350000 0 0 0 0 0.356745
0.090000 0.815000 -0.130000 0.820000 -0.540000 0.380000 0 0 0 0 0.346978
0.105000 0.805000 -0.060000 0.815000 -0.525000 0.375000 0 0 0 0 0.350431
0.100000 0.810000 -0.085000 0.805000 -0.510000 0.385000 0 0 0 0 0.353244
0.120000 0.800000 -0.090000 0.800000 -0.530000 0.375000 0 0 0 0 0.343161
0.110000 0.805000 -0.075000 0.815000 -0.535000 0.380000 0 0 0 0 0.349108
0.105000 0.795000 -0.155000 0.785000 -0.520000 0.345000 0 0 0 0 0.342154
0.065000 0.785000 -0.140000 0.785000 -0.555000 0.300000 0 0 0 0 0.338167
0.100000 0.815000 -0.140000 0.795000 -0.515000 0.355000 0 0 0 0 0.352784
0.105000 0.795000 -0.130000 0.785000 -0.540000 0.340000 0 0 0 0 0.347860
0.105000 0.820000 -0.135000 0.805000 -0.525000 0.345000 0 0 0 0 0.352306
0.115000 0.780000 -0.105000 0.780000 -0.515000 0.335000 0 0 0 0 0.360621
0.110000 0.785000 -0.120000 0.785000 -0.515000 0.330000 0 0 0 0 0.354229
0.090000 0.795000 -0.110000 0.795000 -0.525000 0.355000 0 0 0 0 0.332929
0.115000 0.765000 -0.080000 0.760000 -0.520000 0.335000 0 0 0 0 0.359878
0.095000 0.780000 -0.125000 0.775000 -0.525000 0.335000 0 0 0 0 0.353700
0.135000 0.780000 -0.095000 0.775000 -0.540000 0.345000 0 0 0 0 0.354726
0.165000 0.820000 -0.105000 0.825000 -0.490000 0.395000 0 0 0 0 0.343810
0.415000 0.540000 0.170000 0.765000 -0.030000 0.840000 -0.235000 0.790000 0 0 0.325537
0.370000 0.535000 0.170000 0.735000 -0.040000 0.815000 -0.240000 0.745000 0 0 0.327152
0.385000 0.555000 0.140000 0.750000 -0.050000 0.830000 -0.260000 0.760000 0 0 0.326336
0.360000 0.580000 0.140000 0.750000 -0.055000 0.845000 -0.255000 0.770000 0 0 0.328329
0.355000 0.545000 0.145000 0.720000 -0.060000 0.820000 -0.245000 0.755000 0 0 0.322187
0.370000 0.555000 0.175000 0.735000 -0.040000 0.830000 -0.235000 0.775000 0 0 0.319629
0.375000 0.555000 0.150000 0.740000 -0.040000 0.825000 -0.240000 0.760000 0 0 0.329129
0.400000 0.590000 0.170000 0.775000 -0.050000 0.855000 -0.260000 0.790000 0 0 0.326080
0.375000 0.570000 0.165000 0.745000 -0.060000 0.830000 -0.275000 0.780000 0 0 0.333167
0.350000 0.530000 0.140000 0.710000 -0.050000 0.805000 -0.255000 0.740000 0 0 0.327320
0.365000 0.535000 0.165000 0.730000 -0.040000 0.800000 -0.235000 0.755000 0 0 0.327216
0.365000 0.530000 0.170000 0.700000 -0.025000 0.810000 -0.235000 0.755000 0 0 0.323827
0.385000 0.540000 0.160000 0.745000 -0.035000 0.835000 -0.245000 0.775000 0 0 0.326061
0.335000 0.545000 0.130000 0.720000 -0.060000 0.810000 -0.235000 0.760000 0 0 0.330237
0.410000 0.515000 0.200000 0.745000 0.020000 0.835000 -0.220000 0.770000 0 0 0.314580
0.400000 0.535000 0.170000 0.745000 -0.040000 0.835000 -0.240000 0.775000 0 0 0.321159
0.365000 0.505000 0.145000 0.720000 -0.025000 0.785000 -0.260000 0.725000 0 0 0.317509
0.380000 0.540000 0.170000 0.735000 -0.055000 0.795000 -0.240000 0.745000 0 0 0.326860
0.390000 0.515000 0.165000 0.725000 -0.055000 0.810000 -0.250000 0.755000 0 0 0.317232
0.385000 0.510000 0.140000 0.725000 -0.070000 0.795000 -0.265000 0.735000 0 0 0.319268
0.380000 0.560000 0.145000 0.755000 -0.035000 0.835000 -0.230000 0.775000 0 0 0.323189
0.435000 0.435000 0.180000 0.670000 -0.055000 0.755000 -0.275000 0.680000 0 0 0.327477
0.475000 0.545000 0.260000 0.775000 0.095000 0.865000 -0.125000 0.835000 -0.530000 0.360000 0.320702
0.395000 0.560000 0.205000 0.745000 0.030000 0.820000 -0.165000 0.780000 -0.560000 0.280000 0.326763
0.445000 0.555000 0.235000 0.745000 0.075000 0.820000 -0.130000 0.805000 -0.550000 0.325000 0.329934
0.430000 0.575000 0.215000 0.770000 0.040000 0.845000 -0.155000 0.810000 -0.575000 0.290000 0.312431
0.420000 0.550000 0.225000 0.730000 0.085000 0.830000 -0.110000 0.795000 -0.560000 0.310000 0.327923
0.420000 0.560000 0.210000 0.745000 0.050000 0.820000 -0.145000 0.795000 -0.575000 0.280000 0.320867
0.430000 0.565000 0.240000 0.755000 0.060000 0.820000 -0.150000 0.800000 -0.555000 0.295000 0.331401
0.415000 0.525000 0.225000 0.720000 0.075000 0.810000 -0.105000 0.780000 -0.545000 0.295000 0.331545
0.445000 0.530000 0.240000 0.740000 0.095000 0.840000 -0.115000 0.810000 -0.570000 0.305000 0.315844
0.435000 0.550000 0.230000 0.750000 0.075000 0.850000 -0.135000 0.805000 -0.570000 0.315000 0.322980
0.465000 0.520000 0.235000 0.735000 0.090000 0.835000 -0.110000 0.800000 -0.560000 0.315000 0.315806
0.455000 0.545000 0.230000 0.755000 0.090000 0.855000 -0.135000 0.810000 -0.560000 0.310000 0.319201
0.475000 0.525000 0.235000 0.745000 0.090000 0.850000 -0.130000 0.800000 -0.560000 0.315000 0.321526
0.490000 0.520000 0.265000 0.750000 0.100000 0.855000 -0.100000 0.815000 -0.525000 0.355000 0.313129
0.485000 0.520000 0.250000 0.745000 0.095000 0.855000 -0.115000 0.820000 -0.560000 0.325000 0.310313
0.460000 0.520000 0.250000 0.735000 0.095000 0.830000 -0.115000 0.800000 -0.550000 0.315000 0.324957
0.480000 0.535000 0.250000 0.760000 0.090000 0.855000 -0.125000 0.825000 -0.535000 0.335000 0.327838
0.460000 0.520000 0.245000 0.745000 0.100000 0.840000 -0.130000 0.815000 -0.545000 0.330000 0.318879
0.445000 0.500000 0.265000 0.705000 0.115000 0.805000 -0.100000 0.785000 -0.540000 0.320000 0.330834
0.425000 0.525000 0.225000 0.725000 0.065000 0.800000 -0.150000 0.780000 -0.560000 0.305000 0.338416
0.415000 0.560000 0.195000 0.740000 0.050000 0.820000 -0.160000 0.790000 -0.560000 0.300000 0.334318
0.405000 0.535000 0.215000 0.720000 0.035000 0.810000 -0.155000 0.760000 -0.565000 0.275000 0.324234
0.430000 0.575000 0.210000 0.765000 0.040000 0.845000 -0.165000 0.810000 -0.585000 0.305000 0.329956
0.250000 0.760000 -0.030000 0.800000 -0.335000 0.540000 0 0 0 0 0.342946
0.300000 0.710000 -0.045000 0.750000 -0.295000 0.480000 0 0 0 0 0.324899
0.290000 0.665000 -0.010000 0.705000 -0.275000 0.455000 0 0 0 0 0.341049
0.260000 0.780000 -0.035000 0.810000 -0.275000 0.565000 0 0 0 0 0.338850
0.240000 0.740000 -0.050000 0.770000 -0.295000 0.515000 0 0 0 0 0.335113
0.325000 0.790000 0.005000 0.870000 -0.295000 0.605000 0 0 0 0 0.338455
0.280000 0.740000 -0.015000 0.805000 -0.350000 0.525000 0 0 0 0 0.343853
0.325000 0.650000 0.020000 0.725000 -0.265000 0.450000 0 0 0 0 0.353188
0.285000 0.635000 -0.005000 0.700000 -0.250000 0.440000 0 0 0 0 0.355705
0.320000 0.705000 -0.020000 0.765000 -0.295000 0.515000 0 0 0 0 0.352384
0.345000 0.655000 0.000000 0.725000 -0.260000 0.445000 0 0 0 0 0.340861
0.320000 0.725000 0.015000 0.780000 -0.280000 0.505000 0 0 0 0 0.351649
0.320000 0.635000 0.030000 0.705000 -0.260000 0.445000 0 0 0 0 0.358789
0.310000 0.620000 0.025000 0.690000 -0.285000 0.420000 0 0 0 0 0.356509
0.310000 0.650000 0.030000 0.715000 -0.245000 0.460000 0 0 0 0 0.350071
0.310000 0.615000 0.050000 0.685000 -0.255000 0.420000 0 0 0 0 0.367751
0.285000 0.695000 -0.030000 0.730000 -0.275000 0.440000 0 0 0 0 0.349384
0.270000 0.740000 -0.015000 0.800000 -0.265000 0.545000 0 0 0 0 0.356906
0.290000 0.620000 0.050000 0.685000 -0.250000 0.440000 0 0 0 0 0.370583
0.300000 0.780000 0.010000 0.845000 -0.280000 0.575000 0 0 0 0 0.346655
0.270000 0.720000 -0.005000 0.770000 -0.260000 0.520000 0 0 0 0 0.360041
0.250000 0.730000 -0.040000 0.780000 -0.275000 0.530000 0 0 0 0 0.360968
0.280000 0.760000 -0.175000 0.705000 -0.365000 0.540000 0 0 0 0 0.310271
0.215000 0.725000 -0.180000 0.635000 -0.365000 0.535000 0 0 0 0 0.339457
0.275000 0.735000 -0.120000 0.675000 -0.405000 0.545000 0 0 0 0 0.317581
0.280000 0.755000 -0.160000 0.680000 -0.365000 0.580000 0 0 0 0 0.309159
0.260000 0.855000 -0.130000 0.780000 -0.355000 0.650000 0 0 0 0 0.313906
0.285000 0.705000 -0.145000 0.600000 -0.380000 0.525000 0 0 0 0 0.349935
0.290000 0.700000 -0.135000 0.595000 -0.380000 0.525000 0 0 0 0 0.339352
0.310000 0.710000 -0.095000 0.635000 -0.345000 0.540000 0 0 0 0 0.335603
0.280000 0.785000 -0.150000 0.715000 -0.370000 0.590000 0 0 0 0 0.318799
0.300000 0.715000 -0.115000 0.685000 -0.380000 0.550000 0 0 0 0 0.358950
0.290000 0.695000 -0.120000 0.645000 -0.390000 0.505000 0 0 0 0 0.345848
0.310000 0.675000 -0.140000 0.630000 -0.410000 0.485000 0 0 0 0 0.346569
0.335000 0.685000 -0.140000 0.595000 -0.400000 0.490000 0 0 0 0 0.344544
0.305000 0.685000 -0.080000 0.620000 -0.370000 0.530000 0 0 0 0 0.354479
0.300000 0.700000 -0.140000 0.650000 -0.370000 0.515000 0 0 0 0 0.338836
0.330000 0.655000 -0.115000 0.625000 -0.350000 0.480000 0 0 0 0 0.372059
0.315000 0.755000 -0.165000 0.685000 -0.375000 0.560000 0 0 0 0 0.332029
0.295000 0.680000 -0.120000 0.640000 -0.405000 0.495000 0 0 0 0 0.340076
0.310000 0.700000 -0.130000 0.670000 -0.350000 0.550000 0 0 0 0 0.337852
0.315000 0.730000 -0.090000 0.705000 -0.320000 0.590000 0 0 0 0 0.291203
0.290000 0.710000 -0.110000 0.655000 -0.375000 0.550000 0 0 0 0 0.332554
0.315000 0.790000 -0.070000 0.765000 -0.370000 0.630000 0 0 0 0 0.307824
0.070000 0.790000 -0.165000 0.760000 -0.425000 0.545000 0 0 0 0 0.352448
0.095000 0.880000 -0.140000 0.870000 -0.375000 0.665000 0 0 0 0 0.333856
0.110000 0.655000 -0.115000 0.695000 -0.355000 0.530000 0 0 0 0 0.347186
0.145000 0.690000 -0.055000 0.690000 -0.325000 0.530000 0 0 0 0 0.362339
0.075000 0.750000 -0.160000 0.720000 -0.360000 0.550000 0 0 0 0 0.353802
0.075000 0.670000 -0.120000 0.650000 -0.345000 0.500000 0 0 0 0 0.370373
0.070000 0.660000 -0.135000 0.640000 -0.340000 0.490000 0 0 0 0 0.377994
0.060000 0.650000 -0.140000 0.635000 -0.340000 0.485000 0 0 0 0 0.373106
0.065000 0.660000 -0.130000 0.645000 -0.345000 0.490000 0 0 0 0 0.372214
0.080000 0.695000 -0.125000 0.675000 -0.340000 0.505000 0 0 0 0 0.365500
0.065000 0.655000 -0.130000 0.615000 -0.340000 0.470000 0 0 0 0 0.372331
0.090000 0.670000 -0.110000 0.665000 -0.345000 0.510000 0 0 0 0 0.372143
0.090000 0.690000 -0.155000 0.665000 -0.340000 0.520000 0 0 0 0 0.364736
0.075000 0.685000 -0.130000 0.675000 -0.310000 0.530000 0 0 0 0 0.378541
0.095000 0.685000 -0.095000 0.675000 -0.265000 0.540000 0 0 0 0 0.371481
0.090000 0.665000 -0.135000 0.660000 -0.315000 0.480000 0 0 0 0 0.361159
0.070000 0.745000 -0.155000 0.730000 -0.375000 0.545000 0 0 0 0 0.354512
0.110000 0.730000 -0.155000 0.720000 -0.380000 0.545000 0 0 0 0 0.370306
0.085000 0.675000 -0.130000 0.660000 -0.345000 0.500000 0 0 0 0 0.364639
0.105000 0.720000 -0.120000 0.720000 -0.345000 0.540000 0 0 0 0 0.368288
0.090000 0.665000 -0.130000 0.655000 -0.345000 0.500000 0 0 0 0 0.392214
0.085000 0.625000 -0.110000 0.615000 -0.335000 0.460000 0 0 0 0 0.383628
0.345000 0.390000 0 0 0 0 0 0 0 0 0.542703
0.300000 0.335000 0 0 0 0 0 0 0 0 0.582820
0.305000 0.390000 0 0 0 0 0 0 0 0 0.558710
0.295000 0.375000 0 0 0 0 0 0 0 0 0.525751
0.320000 0.325000 0 0 0 0 0 0 0 0 0.547361
0.315000 0.345000 0 0 0 0 0 0 0 0 0.542947
0.355000 0.355000 0 0 0 0 0 0 0 0 0.510190
0.360000 0.355000 0 0 0 0 0 0 0 0 0.523384
0.370000 0.355000 0 0 0 0 0 0 0 0 0.537945
0.315000 0.360000 0 0 0 0 0 0 0 0 0.541594
0.330000 0.380000 0 0 0 0 0 0 0 0 0.517109
0.340000 0.375000 0 0 0 0 0 0 0 0 0.520617
0.340000 0.335000 0 0 0 0 0 0 0 0 0.549642
0.335000 0.330000 0 0 0 0 0 0 0 0 0.558386
0.340000 0.375000 0 0 0 0 0 0 0 0 0.544216
0.305000 0.370000 0 0 0 0 0 0 0 0 0.560162
0.310000 0.415000 0 0 0 0 0 0 0 0 0.537323
0.360000 0.345000 0 0 0 0 0 0 0 0 0.530780
0.300000 0.375000 0 0 0 0 0 0 0 0 0.536353
0.300000 0.370000 0 0 0 0 0 0 0 0 0.536543
0.235000 0.730000 0.135000 0.745000 0.025000 0.765000 -0.075000 0.780000 0 0 0.342367
0.225000 0.715000 0.120000 0.735000 0.010000 0.755000 -0.095000 0.775000 0 0 0.349907
0.215000 0.765000 0.105000 0.780000 -0.005000 0.790000 -0.115000 0.805000 0 0 0.329294
0.235000 0.705000 0.130000 0.725000 0.020000 0.745000 -0.085000 0.765000 0 0 0.344575
0.210000 0.750000 0.110000 0.760000 0.000000 0.780000 -0.100000 0.790000 0 0 0.272089
0.200000 0.740000 0.100000 0.755000 -0.010000 0.765000 -0.110000 0.780000 0 0 0.283128
0.205000 0.770000 0.100000 0.785000 -0.010000 0.805000 -0.115000 0.820000 0 0 0.332235
0.200000 0.745000 0.100000 0.755000 -0.010000 0.775000 -0.110000 0.785000 0 0 0.339565
0.205000 0.695000 0.105000 0.710000 -0.005000 0.730000 -0.105000 0.745000 0 0 0.267490
0.255000 0.680000 0.155000 0.705000 0.045000 0.725000 -0.055000 0.750000 0 0 0.347481
0.215000 0.755000 0.110000 0.770000 0.000000 0.790000 -0.105000 0.805000 0 0 0.347626
0.240000 0.710000 0.140000 0.730000 0.030000 0.760000 -0.070000 0.780000 0 0 0.355229
0.200000 0.745000 0.095000 0.755000 -0.015000 0.775000 -0.120000 0.785000 0 0 0.327252
0.200000 0.785000 0.090000 0.800000 -0.030000 0.810000 -0.140000 0.825000 0 0 0.297645
0.220000 0.730000 0.120000 0.745000 0.010000 0.765000 -0.090000 0.780000 0 0 0.266709
0.225000 0.720000 0.125000 0.735000 0.015000 0.755000 -0.085000 0.770000 0 0 0.346802
0.195000 0.735000 0.095000 0.750000 -0.015000 0.760000 -0.115000 0.775000 0 0 0.316597
0.240000 0.715000 0.135000 0.730000 0.025000 0.750000 -0.080000 0.765000 0 0 0.289025
0.240000 0.720000 0.140000 0.740000 0.030000 0.760000 -0.070000 0.780000 0 0 0.361602
0.200000 0.800000 0.090000 0.810000 -0.020000 0.820000 -0.130000 0.830000 0 0 0.319234
0.700000 0.065000 0.590000 0.495000 0 0 0 0 0 0 0.345714
0.665000 0.065000 0.670000 0.370000 0 0 0 0 0 0 0.340509
0.715000 0.085000 0.690000 0.435000 0 0 0 0 0 0 0.295511
0.725000 0.095000 0.665000 0.390000 0 0 0 0 0 0 0.345304
0.655000 0.060000 0.610000 0.335000 0 0 0 0 0 0 0.367743
0.730000 -0.035000 0.715000 0.365000 0 0 0 0 0 0 0.325239
0.695000 0.020000 0.665000 0.375000 0 0 0 0 0 0 0.349627
0.740000 0.010000 0.655000 0.470000 0 0 0 0 0 0 0.283560
0.720000 0.065000 0.715000 0.365000 0 0 0 0 0 0 0.304950
0.705000 -0.015000 0.735000 0.295000 0 0 0 0 0 0 0.309491
0.750000 0.060000 0.680000 0.530000 0 0 0 0 0 0 0.303573
0.750000 0.080000 0.720000 0.415000 0 0 0 0 0 0 0.287035
0.795000 -0.005000 0.730000 0.505000 0 0 0 0 0 0 0.292288
0.735000 0.005000 0.670000 0.390000 0 0 0 0 0 0 0.325189
0.760000 0.080000 0.725000 0.440000 0 0 0 0 0 0 0.298514
0.705000 0.080000 0.565000 0.565000 0 0 0 0 0 0 0.305040
0.655000 0.020000 0.640000 0.340000 0 0 0 0 0 0 0.342570
0.755000 0.065000 0.750000 0.400000 0 0 0 0 0 0 0.296382
0.725000 0.030000 0.620000 0.495000 0 0 0 0 0 0 0.302726
0.735000 0.020000 0.775000 0.345000 0 0 0 0 0 0 0.287774
0.710000 0.025000 0.715000 0.400000 0 0 0 0 0 0 0.306487
0.200000 0.765000 0 0 0 0 0 0 0 0 0.333229
0.215000 0.785000 0 0 0 0 0 0 0 0 0.333389
0.220000 0.880000 0 0 0 0 0 0 0 0 0.316959
0.225000 0.765000 0 0 0 0 0 0 0 0 0.325651
0.215000 0.770000 0 0 0 0 0 0 0 0 0.315535
0.240000 0.815000 0 0 0 0 0 0 0 0 0.298817
0.190000 0.755000 0 0 0 0 0 0 0 0 0.319722
0.195000 0.700000 0 0 0 0 0 0 0 0 0.299099
0.180000 0.740000 0 0 0 0 0 0 0 0 0.310620
0.145000 0.730000 0 0 0 0 0 0 0 0 0.294200
0.240000 0.820000 0 0 0 0 0 0 0 0 0.317503
0.190000 0.765000 0 0 0 0 0 0 0 0 0.324623
0.210000 0.725000 0 0 0 0 0 0 0 0 0.341713
0.225000 0.720000 0 0 0 0 0 0 0 0 0.323183
0.230000 0.745000 0 0 0 0 0 0 0 0 0.341761
0.230000 0.800000 0 0 0 0 0 0 0 0 0.337604
0.160000 0.715000 0 0 0 0 0 0 0 0 0.341167
0.240000 0.710000 0 0 0 0 0 0 0 0 0.343189
0.185000 0.655000 0 0 0 0 0 0 0 0 0.374945
0.240000 0.900000 0 0 0 0 0 0 0 0 0.309442
0 0 0 0 0 0 0 0 0 0 0.646420
0 0 0 0 0 0 0 0 0 0 0.638846
0 0 0 0 0 0 0 0 0 0 0.665467
0 0 0 0 0 0 0 0 0 0 0.644514
0 0 0 0 0 0 0 0 0 0 0.650927
0 0 0 0 0 0 0 0 0 0 0.649174
0 0 0 0 0 0 0 0 0 0 0.624557
0 0 0 0 0 0 0 0 0 0 0.644014
0 0 0 0 0 0 0 0 0 0 0.648615
0 0 0 0 0 0 0 0 0 0 0.627237
0 0 0 0 0 0 0 0 0 0 0.665489
0 0 0 0 0 0 0 0 0 0 0.631107
0 0 0 0 0 0 0 0 0 0 0.657090
0 0 0 0 0 0 0 0 0 0 0.654603
0 0 0 0 0 0 0 0 0 0 0.632608
0 0 0 0 0 0 0 0 0 0 0.671401
0 0 0 0 0 0 0 0 0 0 0.652982
0 0 0 0 0 0 0 0 0 0 0.643687
0 0 0 0 0 0 0 0 0 0 0.638454
0 0 0 0 0 0 0 0 0 0 0.655954
0 0 0 0 0 0 0 0 0 0 0.652075
0.055000 0.670000 -0.040000 0.685000 -0.135000 0.700000 0 0 0 0 0.385057
0.035000 0.635000 -0.065000 0.640000 -0.165000 0.645000 0 0 0 0 0.378517
0.085000 0.740000 -0.015000 0.755000 -0.115000 0.770000 0 0 0 0 0.348258
0.105000 0.665000 0.005000 0.680000 -0.095000 0.695000 0 0 0 0 0.388268
0.095000 0.615000 0.000000 0.630000 -0.095000 0.645000 0 0 0 0 0.390793
0.090000 0.635000 -0.010000 0.655000 -0.110000 0.675000 0 0 0 0 0.405042
0.100000 0.630000 0.000000 0.650000 -0.100000 0.670000 0 0 0 0 0.404884
0.100000 0.600000 0.000000 0.620000 -0.100000 0.640000 0 0 0 0 0.414901
0.080000 0.640000 -0.020000 0.655000 -0.120000 0.670000 0 0 0 0 0.403349
0.100000 0.600000 0.005000 0.620000 -0.090000 0.640000 0 0 0 0 0.407354
0.085000 0.610000 -0.010000 0.625000 -0.105000 0.640000 0 0 0 0 0.401245
0.110000 0.685000 0.005000 0.700000 -0.100000 0.715000 0 0 0 0 0.398683
0.070000 0.655000 -0.025000 0.665000 -0.120000 0.675000 0 0 0 0 0.381598
0.100000 0.595000 0.005000 0.620000 -0.090000 0.645000 0 0 0 0 0.418147
0.050000 0.615000 -0.045000 0.625000 -0.140000 0.635000 0 0 0 0 0.399089
0.105000 0.650000 0.005000 0.665000 -0.095000 0.680000 0 0 0 0 0.392803
0.085000 0.625000 -0.015000 0.640000 -0.115000 0.655000 0 0 0 0 0.412895
0.055000 0.595000 -0.035000 0.610000 -0.125000 0.625000 0 0 0 0 0.420109
0.115000 0.660000 0.010000 0.675000 -0.095000 0.690000 0 0 0 0 0.398318
0.105000 0.625000 0.010000 0.645000 -0.085000 0.665000 0 0 0 0 0.377620
-0.660000 0.155000 0 0 0 0 0 0 0 0 0.363310
-0.730000 0.145000 0 0 0 0 0 0 0 0 0.333410
-0.730000 0.175000 0 0 0 0 0 0 0 0 0.355567
-0.690000 0.225000 0 0 0 0 0 0 0 0 0.331595
-0.730000 0.170000 0 0 0 0 0 0 0 0 0.344483
-0.680000 0.170000 0 0 0 0 0 0 0 0 0.349751
-0.650000 0.160000 0 0 0 0 0 0 0 0 0.360245
-0.730000 0.225000 0 0 0 0 0 0 0 0 0.349152
-0.715000 0.185000 0 0 0 0 0 0 0 0 0.363291
-0.685000 0.170000 0 0 0 0 0 0 0 0 0.360269
-0.640000 0.200000 0 0 0 0 0 0 0 0 0.366217
-0.685000 0.190000 0 0 0 0 0 0 0 0 0.354317
-0.670000 0.150000 0 0 0 0 0 0 0 0 0.353985
-0.730000 0.205000 0 0 0 0 0 0 0 0 0.354143
-0.655000 0.200000 0 0 0 0 0 0 0 0 0.347577
-0.685000 0.215000 0 0 0 0 0 0 0 0 0.352832
-0.610000 0.165000 0 0 0 0 0 0 0 0 0.387157
-0.675000 0.185000 0 0 0 0 0 0 0 0 0.365337
-0.735000 0.240000 0 0 0 0 0 0 0 0 0.345014
-0.675000 0.205000 0 0 0 0 0 0 0 0 0.359880
-0.715000 0.205000 0 0 0 0 0 0 0 0 0.348353
-0.735000 0.200000 -0.745000 0.070000 0 0 0 0 0 0 0.356865
-0.790000 0.180000 -0.790000 0.035000 0 0 0 0 0 0 0.367565
-0.720000 0.190000 -0.730000 0.050000 0 0 0 0 0 0 0.374267
-0.735000 0.145000 -0.735000 0.015000 0 0 0 0 0 0 0.369546
-0.730000 0.175000 -0.730000 0.045000 0 0 0 0 0 0 0.351517
-0.680000 0.190000 -0.690000 0.070000 0 0 0 0 0 0 0.372849
-0.670000 0.200000 -0.690000 0.070000 0 0 0 0 0 0 0.367518
-0.700000 0.195000 -0.710000 0.070000 0 0 0 0 0 0 0.366784
-0.705000 0.220000 -0.725000 0.090000 0 0 0 0 0 0 0.367982
-0.800000 0.200000 -0.800000 0.070000 0 0 0 0 0 0 0.360927
-0.740000 0.200000 -0.740000 0.070000 0 0 0 0 0 0 0.363543
-0.730000 0.200000 -0.740000 0.070000 0 0 0 0 0 0 0.356942
-0.745000 0.210000 -0.755000 0.080000 0 0 0 0 0 0 0.344040
-0.730000 0.175000 -0.730000 0.045000 0 0 0 0 0 0 0.354272
-0.780000 0.190000 -0.780000 0.060000 0 0 0 0 0 0 0.357966
-0.680000 0.200000 -0.690000 0.085000 0 0 0 0 0 0 0.375521
-0.685000 0.175000 -0.685000 0.045000 0 0 0 0 0 0 0.383348
-0.700000 0.180000 -0.700000 0.050000 0 0 0 0 0 0 0.358304
-0.740000 0.215000 -0.750000 0.095000 0 0 0 0 0 0 0.346167
-0.685000 0.215000 -0.700000 0.090000 0 0 0 0 0 0 0.363363
-0.705000 0.190000 -0.705000 0.070000 0 0 0 0 0 0 0.360026
-0.245000 0.535000 0 0 0 0 0 0 0 0 0.453331
-0.240000 0.560000 0 0 0 0 0 0 0 0 0.419301
-0.260000 0.525000 0 0 0 0 0 0 0 0 0.402554
-0.240000 0.515000 0 0 0 0 0 0 0 0 0.421820
-0.230000 0.580000 0 0 0 0 0 0 0 0 0.439907
-0.255000 0.515000 0 0 0 0 0 0 0 0 0.418404
-0.250000 0.540000 0 0 0 0 0 0 0 0 0.427069
-0.235000 0.505000 0 0 0 0 0 0 0 0 0.438030
-0.250000 0.495000 0 0 0 0 0 0 0 0 0.449825
-0.215000 0.520000 0 0 0 0 0 0 0 0 0.427497
-0.250000 0.575000 0 0 0 0 0 0 0 0 0.416089
-0.230000 0.505000 0 0 0 0 0 0 0 0 0.437765
-0.220000 0.535000 0 0 0 0 0 0 0 0 0.431759
-0.255000 0.575000 0 0 0 0 0 0 0 0 0.423048
-0.235000 0.580000 0 0 0 0 0 0 0 0 0.424034
-0.210000 0.555000 0 0 0 0 0 0 0 0 0.432265
-0.215000 0.515000 0 0 0 0 0 0 0 0 0.442392
-0.275000 0.510000 0 0 0 0 0 0 0 0 0.455214
-0.185000 0.495000 0 0 0 0 0 0 0 0 0.485248
-0.260000 0.500000 0 0 0 0 0 0 0 0 0.439982
-0.235000 0.510000 0 0 0 0 0 0 0 0 0.442374
0.210000 0.800000 0.095000 0.510000 -0.065000 0.785000 0 0 0 0 0.323660
0.180000 0.745000 0.075000 0.430000 -0.045000 0.715000 0 0 0 0 0.309908
0.195000 0.765000 0.080000 0.460000 -0.080000 0.765000 0 0 0 0 0.335197
0.215000 0.865000 0.085000 0.545000 -0.065000 0.865000 0 0 0 0 0.320957
0.150000 0.685000 0.060000 0.435000 -0.035000 0.675000 0 0 0 0 0.337121
0.190000 0.860000 0.095000 0.540000 -0.045000 0.865000 0 0 0 0 0.327396
0.230000 0.900000 0.115000 0.590000 -0.050000 0.915000 0 0 0 0 0.314450
0.155000 0.810000 0.060000 0.520000 -0.060000 0.805000 0 0 0 0 0.331455
0.130000 0.805000 0.045000 0.495000 -0.100000 0.780000 0 0 0 0 0.321732
0.155000 0.710000 0.050000 0.415000 -0.070000 0.695000 0 0 0 0 0.317109
0.175000 0.755000 0.075000 0.460000 -0.025000 0.750000 0 0 0 0 0.313123
0.175000 0.700000 0.070000 0.420000 -0.040000 0.710000 0 0 0 0 0.332378
0.145000 0.785000 0.045000 0.510000 -0.050000 0.790000 0 0 0 0 0.348875
0.190000 0.720000 0.080000 0.430000 -0.045000 0.705000 0 0 0 0 0.323274
0.190000 0.755000 0.075000 0.445000 -0.065000 0.730000 0 0 0 0 0.325513
0.175000 0.780000 0.110000 0.515000 -0.010000 0.725000 0 0 0 0 0.333879
0.210000 0.740000 0.110000 0.450000 -0.025000 0.670000 0 0 0 0 0.319382
0.165000 0.745000 0.070000 0.425000 -0.080000 0.740000 0 0 0 0 0.306433
0.150000 0.745000 0.060000 0.445000 -0.065000 0.755000 0 0 0 0 0.333015
0.195000 0.865000 0.090000 0.550000 -0.055000 0.865000 0 0 0 0 0.322542
0.145000 0.810000 0.045000 0.495000 -0.085000 0.810000 0 0 0 0 0.338872
0.645000 0.075000 0.220000 0.745000 0 0 0 0 0 0 0.318871
0.605000 0.150000 0.215000 0.725000 0 0 0 0 0 0 0.328018
0.655000 0.045000 0.250000 0.740000 0 0 0 0 0 0 0.319426
0.645000 0.055000 0.230000 0.760000 0 0 0 0 0 0 0.311760
0.595000 0.070000 0.160000 0.695000 0 0 0 0 0 0 0.344776
0.635000 0.045000 0.195000 0.720000 0 0 0 0 0 0 0.332705
0.635000 0.105000 0.205000 0.765000 0 0 0 0 0 0 0.323669
0.605000 0.025000 0.185000 0.725000 0 0 0 0 0 0 0.326111
0.630000 0.005000 0.245000 0.725000 0 0 0 0 0 0 0.343274
0.620000 0.030000 0.220000 0.730000 0 0 0 0 0 0 0.319701
0.575000 0.050000 0.190000 0.700000 0 0 0 0 0 0 0.342121
0.625000 0.060000 0.200000 0.780000 0 0 0 0 0 0 0.327048
0.640000 0.025000 0.200000 0.750000 0 0 0 0 0 0 0.315403
0.635000 0.050000 0.250000 0.730000 0 0 0 0 0 0 0.316962
0.605000 0.025000 0.160000 0.735000 0 0 0 0 0 0 0.306434
0.575000 0.165000 0.145000 0.710000 0 0 0 0 0 0 0.328774
0.650000 0.090000 0.170000 0.770000 0 0 0 0 0 0 0.319598
0.655000 0.120000 0.235000 0.790000 0 0 0 0 0 0 0.315514
0.595000 0.090000 0.125000 0.775000 0 0 0 0 0 0 0.303024
0.615000 0.160000 0.150000 0.775000 0 0 0 0 0 0 0.322040
0.685000 0.165000 0.215000 0.850000 0 0 0 0 0 0 0.304327
0.570000 0.295000 0.570000 0.295000 0 0 0 0 0 0 0.367150
0.545000 0.400000 0.545000 0.400000 0 0 0 0 0 0 0.339637
0.590000 0.335000 0.590000 0.335000 0 0 0 0 0 0 0.367525
0.610000 0.255000 0.610000 0.255000 0 0 0 0 0 0 0.358315
0.570000 0.415000 0.570000 0.415000 0 0 0 0 0 0 0.307773
0.630000 0.445000 0.630000 0.445000 0 0 0 0 0 0 0.292727
0.530000 0.355000 0.530000 0.355000 0 0 0 0 0 0 0.348387
0.545000 0.350000 0.545000 0.350000 0 0 0 0 0 0 0.342856
0.525000 0.480000 0.525000 0.480000 0 0 0 0 0 0 0.301682
0.525000 0.360000 0.525000 0.360000 0 0 0 0 0 0 0.337987
0.585000 0.270000 0.585000 0.270000 0 0 0 0 0 0 0.364656
0.540000 0.425000 0.540000 0.425000 0 0 0 0 0 0 0.324684
0.570000 0.375000 0.570000 0.375000 0 0 0 0 0 0 0.313743
0.615000 0.355000 0.615000 0.355000 0 0 0 0 0 0 0.300258
0.555000 0.380000 0.555000 0.380000 0 0 0 0 0 0 0.323508
0.565000 0.360000 0.565000 0.360000 0 0 0 0 0 0 0.332436
0.645000 0.300000 0.645000 0.300000 0 0 0 0 0 0 0.367959
0.580000 0.390000 0.580000 0.390000 0 0 0 0 0 0 0.327522
0.585000 0.440000 0.585000 0.440000 0 0 0 0 0 0 0.304800
0.605000 0.320000 0.605000 0.320000 0 0 0 0 0 0 0.352823
-0.695000 0.175000 -0.475000 -0.380000 0 0 0 0 0 0 0.350987
-0.680000 0.170000 -0.460000 -0.360000 0 0 0 0 0 0 0.368083
-0.715000 0.185000 -0.525000 -0.335000 0 0 0 0 0 0 0.334610
-0.720000 0.210000 -0.515000 -0.335000 0 0 0 0 0 0 0.340300
-0.700000 0.210000 -0.460000 -0.370000 0 0 0 0 0 0 0.340028
-0.710000 0.220000 -0.515000 -0.360000 0 0 0 0 0 0 0.344072
-0.720000 0.285000 -0.485000 -0.350000 0 0 0 0 0 0 0.338023
-0.710000 0.210000 -0.490000 -0.360000 0 0 0 0 0 0 0.338835
-0.740000 0.205000 -0.490000 -0.395000 0 0 0 0 0 0 0.334562
-0.735000 0.235000 -0.530000 -0.355000 0 0 0 0 0 0 0.331625
-0.725000 0.220000 -0.485000 -0.380000 0 0 0 0 0 0 0.333567
-0.745000 0.195000 -0.510000 -0.370000 0 0 0 0 0 0 0.338074
-0.730000 0.220000 -0.490000 -0.375000 0 0 0 0 0 0 0.341736
-0.715000 0.195000 -0.450000 -0.395000 0 0 0 0 0 0 0.343773
-0.720000 0.210000 -0.520000 -0.345000 0 0 0 0 0 0 0.333300
-0.700000 0.405000 -0.585000 -0.335000 0 0 0 0 0 0 0.312130
-0.685000 0.450000 -0.605000 -0.290000 0 0 0 0 0 0 0.309607
-0.750000 0.185000 -0.515000 -0.380000 0 0 0 0 0 0 0.319296
-0.745000 0.185000 -0.540000 -0.375000 0 0 0 0 0 0 0.318645
-0.745000 0.200000 -0.540000 -0.380000 0 0 0 0 0 0 0.335212
-0.760000 0.210000 -0.535000 -0.390000 0 0 0 0 0 0 0.326451
-0.475000 -0.655000 0.055000 -0.705000 0 0 0 0 0 0 0.341583
-0.620000 -0.580000 -0.025000 -0.660000 0 0 0 0 0 0 0.304764
-0.500000 -0.570000 0.045000 -0.600000 0 0 0 0 0 0 0.351348
-0.505000 -0.605000 0.030000 -0.630000 0 0 0 0 0 0 0.333054
-0.600000 -0.575000 -0.090000 -0.685000 0 0 0 0 0 0 0.309636
-0.605000 -0.610000 -0.070000 -0.715000 0 0 0 0 0 0 0.300180
-0.575000 -0.600000 -0.040000 -0.675000 0 0 0 0 0 0 0.308199
-0.700000 -0.610000 -0.025000 -0.690000 0 0 0 0 0 0 0.286809
-0.560000 -0.620000 0.030000 -0.670000 0 0 0 0 0 0 0.325418
-0.555000 -0.580000 0.065000 -0.635000 0 0 0 0 0 0 0.342443
-0.580000 -0.570000 -0.040000 -0.630000 0 0 0 0 0 0 0.321123
-0.615000 -0.550000 -0.015000 -0.665000 0 0 0 0 0 0 0.338228
-0.470000 -0.620000 0.100000 -0.645000 0 0 0 0 0 0 0.360053
-0.565000 -0.590000 0.010000 -0.640000 0 0 0 0 0 0 0.315828
-0.520000 -0.575000 0.080000 -0.645000 0 0 0 0 0 0 0.336888
-0.550000 -0.525000 -0.145000 -0.640000 0 0 0 0 0 0 0.357286
-0.470000 -0.650000 -0.080000 -0.685000 0 0 0 0 0 0 0.342725
-0.620000 -0.615000 -0.005000 -0.705000 0 0 0 0 0 0 0.324415
-0.605000 -0.665000 0.000000 -0.725000 0 0 0 0 0 0 0.322336
-0.600000 -0.620000 -0.090000 -0.690000 0 0 0 0 0 0 0.309584
-0.580000 -0.575000 -0.065000 -0.720000 0 0 0 0 0 0 0.346239
0.080000 0.810000 0.080000 0.810000 0 0 0 0 0 0 0.328310
0.100000 0.815000 0.100000 0.815000 0 0 0 0 0 0 0.345294
0.070000 0.800000 0.070000 0.800000 0 0 0 0 0 0 0.349465
0.080000 0.810000 0.080000 0.810000 0 0 0 0 0 0 0.340412
0.100000 0.860000 0.100000 0.860000 0 0 0 0 0 0 0.336969
0.135000 0.895000 0.135000 0.895000 0 0 0 0 0 0 0.326979
0.130000 0.815000 0.130000 0.815000 0 0 0 0 0 0 0.336687
0.115000 0.800000 0.115000 0.800000 0 0 0 0 0 0 0.326038
0.130000 0.870000 0.130000 0.870000 0 0 0 0 0 0 0.330252
0.125000 0.870000 0.125000 0.870000 0 0 0 0 0 0 0.340101
0.120000 0.920000 0.120000 0.920000 0 0 0 0 0 0 0.331182
0.115000 0.790000 0.115000 0.790000 0 0 0 0 0 0 0.324742
0.160000 0.840000 0.160000 0.840000 0 0 0 0 0 0 0.333225
0.145000 0.770000 0.145000 0.770000 0 0 0 0 0 0 0.341955
0.145000 0.825000 0.145000 0.825000 0 0 0 0 0 0 0.345252
0.080000 0.850000 0.080000 0.850000 0 0 0 0 0 0 0.342059
0.110000 0.795000 0.110000 0.795000 0 0 0 0 0 0 0.347448
0.105000 0.810000 0.105000 0.810000 0 0 0 0 0 0 0.335586
0.090000 0.870000 0.090000 0.870000 0 0 0 0 0 0 0.331759
0.075000 0.810000 0.075000 0.810000 0 0 0 0 0 0 0.326744
0 0 0 0 0 0 0 0 0 0 0.732960
0 0 0 0 0 0 0 0 0 0 0.734038
0 0 0 0 0 0 0 0 0 0 0.723102
0 0 0 0 0 0 0 0 0 0 0.725461
0 0 0 0 0 0 0 0 0 0 0.702792
0 0 0 0 0 0 0 0 0 0 0.713890
0 0 0 0 0 0 0 0 0 0 0.725905
0 0 0 0 0 0 0 0 0 0 0.734225
0 0 0 0 0 0 0 0 0 0 0.692489
0 0 0 0 0 0 0 0 0 0 0.724595
0 0 0 0 0 0 0 0 0 0 0.691982
0 0 0 0 0 0 0 0 0 0 0.724409
0 0 0 0 0 0 0 0 0 0 0.741932
0 0 0 0 0 0 0 0 0 0 0.727674
0 0 0 0 0 0 0 0 0 0 0.700716
0 0 0 0 0 0 0 0 0 0 0.738834
0 0 0 0 0 0 0 0 0 0 0.698697
0 0 0 0 0 0 0 0 0 0 0.724871
0 0 0 0 0 0 0 0 0 0 0.738944
0 0 0 0 0 0 0 0 0 0 0.747896
0 0 0 0 0 0 0 0 0 0 0.733160
0 0 0 0 0 0 0 0 0 0 0.749236
0.150000 0.805000 0.020000 0.805000 0 0 0 0 0 0 0.344874
0.130000 0.725000 -0.010000 0.725000 0 0 0 0 0 0 0.332882
0.125000 0.765000 -0.005000 0.755000 0 0 0 0 0 0 0.354908
0.150000 0.780000 0.030000 0.780000 0 0 0 0 0 0 0.355746
0.140000 0.800000 0.010000 0.800000 0 0 0 0 0 0 0.355228
0.180000 0.800000 0.050000 0.810000 0 0 0 0 0 0 0.341924
0.150000 0.735000 0.030000 0.735000 0 0 0 0 0 0 0.352626
0.170000 0.815000 0.030000 0.815000 0 0 0 0 0 0 0.349793
0.120000 0.800000 -0.010000 0.800000 0 0 0 0 0 0 0.353447
0.185000 0.700000 0.065000 0.710000 0 0 0 0 0 0 0.350132
0.140000 0.735000 0.030000 0.735000 0 0 0 0 0 0 0.351725
0.165000 0.745000 0.035000 0.755000 0 0 0 0 0 0 0.347956
0.160000 0.755000 0.030000 0.765000 0 0 0 0 0 0 0.348253
0.170000 0.730000 0.040000 0.730000 0 0 0 0 0 0 0.365590
0.140000 0.740000 0.010000 0.740000 0 0 0 0 0 0 0.359742
0.150000 0.740000 0.030000 0.740000 0 0 0 0 0 0 0.351738
0.145000 0.730000 0.015000 0.740000 0 0 0 0 0 0 0.360399
0.120000 0.755000 0.000000 0.755000 0 0 0 0 0 0 0.359481
0.140000 0.750000 0.030000 0.760000 0 0 0 0 0 0 0.341904
0.150000 0.765000 0.020000 0.765000 0 0 0 0 0 0 0.360720
0.165000 0.760000 0.035000 0.770000 0 0 0 0 0 0 0.362250
0.155000 0.745000 0.035000 0.755000 0 0 0 0 0 0 0.355734
0.170000 0.745000 -0.035000 0.780000 0 0 0 0 0 0 0.345198
0.205000 0.775000 -0.025000 0.805000 0 0 0 0 0 0 0.348838
0.165000 0.800000 -0.055000 0.835000 0 0 0 0 0 0 0.351066
0.225000 0.890000 -0.035000 0.920000 0 0 0 0 0 0 0.354010
0.270000 0.820000 -0.005000 0.860000 0 0 0 0 0 0 0.353177
0.220000 0.770000 -0.025000 0.815000 0 0 0 0 0 0 0.343734
0.195000 0.770000 -0.040000 0.810000 0 0 0 0 0 0 0.342237
0.185000 0.780000 -0.030000 0.820000 0 0 0 0 0 0 0.345622
0.185000 0.775000 -0.030000 0.835000 0 0 0 0 0 0 0.346992
0.210000 0.820000 -0.015000 0.875000 0 0 0 0 0 0 0.328000
0.200000 0.745000 -0.080000 0.790000 0 0 0 0 0 0 0.345574
0.235000 0.795000 -0.055000 0.850000 0 0 0 0 0 0 0.332599
0.220000 0.860000 -0.035000 0.900000 0 0 0 0 0 0 0.322747
0.190000 0.810000 -0.055000 0.855000 0 0 0 0 0 0 0.348344
0.195000 0.795000 -0.035000 0.845000 0 0 0 0 0 0 0.348193
0.225000 0.760000 -0.040000 0.785000 0 0 0 0 0 0 0.354810
0.195000 0.740000 -0.040000 0.780000 0 0 0 0 0 0 0.356167
0.240000 0.735000 -0.025000 0.795000 0 0 0 0 0 0 0.341906
0.225000 0.885000 -0.020000 0.930000 0 0 0 0 0 0 0.315518
0.250000 0.790000 -0.040000 0.830000 0 0 0 0 0 0 0.339816
0.205000 0.765000 -0.060000 0.810000 0 0 0 0 0 0 0.345997
0.170000 0.760000 -0.060000 0.800000 0 0 0 0 0 0 0.353756
0.190000 0.745000 0.020000 0.780000 -0.195000 0.695000 0 0 0 0 0.336973
0.160000 0.775000 -0.025000 0.820000 -0.210000 0.715000 0 0 0 0 0.334783
0.180000 0.770000 0.015000 0.815000 -0.215000 0.730000 0 0 0 0 0.348315
0.155000 0.755000 -0.040000 0.795000 -0.240000 0.690000 0 0 0 0 0.336555
0.190000 0.715000 0.015000 0.770000 -0.195000 0.665000 0 0 0 0 0.332340
0.220000 0.815000 -0.020000 0.860000 -0.225000 0.765000 0 0 0 0 0.322820
0.250000 0.790000 0.025000 0.820000 -0.195000 0.745000 0 0 0 0 0.349439
0.215000 0.790000 -0.030000 0.805000 -0.205000 0.745000 0 0 0 0 0.349259
0.200000 0.815000 -0.040000 0.855000 -0.235000 0.765000 0 0 0 0 0.342024
0.225000 0.825000 0.015000 0.870000 -0.230000 0.785000 0 0 0 0 0.321906
0.220000 0.795000 -0.015000 0.835000 -0.230000 0.740000 0 0 0 0 0.342100
0.220000 0.770000 -0.015000 0.810000 -0.220000 0.710000 0 0 0 0 0.343676
0.225000 0.750000 -0.015000 0.805000 -0.220000 0.700000 0 0 0 0 0.344661
0.230000 0.745000 0.020000 0.790000 -0.215000 0.700000 0 0 0 0 0.343909
0.175000 0.735000 -0.030000 0.780000 -0.230000 0.685000 0 0 0 0 0.342151
0.170000 0.720000 -0.030000 0.760000 -0.250000 0.660000 0 0 0 0 0.347525
0.145000 0.690000 -0.045000 0.730000 -0.225000 0.645000 0 0 0 0 0.351901
0.150000 0.695000 -0.030000 0.725000 -0.215000 0.660000 0 0 0 0 0.359106
0.190000 0.665000 0.000000 0.710000 -0.225000 0.640000 0 0 0 0 0.364081
0.160000 0.755000 -0.065000 0.785000 -0.265000 0.710000 0 0 0 0 0.340269
0.190000 0.730000 -0.025000 0.770000 -0.235000 0.680000 0 0 0 0 0.353450
0.275000 0.555000 0 0 0 0 0 0 0 0 0.425881
0.225000 0.495000 0 0 0 0 0 0 0 0 0.452299
0.235000 0.505000 0 0 0 0 0 0 0 0 0.449579
0.170000 0.470000 0 0 0 0 0 0 0 0 0.482548
0.205000 0.525000 0 0 0 0 0 0 0 0 0.433030
0.210000 0.550000 0 0 0 0 0 0 0 0 0.448118
0.130000 0.530000 0 0 0 0 0 0 0 0 0.493445
0.255000 0.590000 0 0 0 0 0 0 0 0 0.429713
0.225000 0.545000 0 0 0 0 0 0 0 0 0.449019
0.175000 0.495000 0 0 0 0 0 0 0 0 0.502143
0.185000 0.495000 0 0 0 0 0 0 0 0 0.472413
0.175000 0.495000 0 0 0 0 0 0 0 0 0.459890
0.180000 0.480000 0 0 0 0 0 0 0 0 0.493803
0.245000 0.545000 0 0 0 0 0 0 0 0 0.455966
0.195000 0.480000 0 0 0 0 0 0 0 0 0.478883
0.245000 0.630000 0 0 0 0 0 0 0 0 0.413117
0.260000 0.625000 0 0 0 0 0 0 0 0 0.424135
0.155000 0.540000 0 0 0 0 0 0 0 0 0.431822
0.165000 0.450000 0 0 0 0 0 0 0 0 0.503756
0.190000 0.540000 0 0 0 0 0 0 0 0 0.443580
0.125000 0.475000 0 0 0 0 0 0 0 0 0.494440
0.215000 0.675000 0 0 0 0 0 0 0 0 0.433411
0.520000 0.290000 -0.320000 0.510000 0 0 0 0 0 0 0.447078
0.525000 0.350000 -0.315000 0.570000 0 0 0 0 0 0 0.432707
0.475000 0.400000 -0.380000 0.530000 0 0 0 0 0 0 0.421452
0.510000 0.315000 -0.365000 0.495000 0 0 0 0 0 0 0.440052
0.460000 0.380000 -0.420000 0.480000 0 0 0 0 0 0 0.420978
0.510000 0.315000 -0.345000 0.530000 0 0 0 0 0 0 0.429596
0.540000 0.340000 -0.355000 0.555000 0 0 0 0 0 0 0.433613
0.535000 0.300000 -0.360000 0.545000 0 0 0 0 0 0 0.431361
0.515000 0.300000 -0.340000 0.540000 0 0 0 0 0 0 0.433734
0.490000 0.300000 -0.330000 0.515000 0 0 0 0 0 0 0.430919
0.460000 0.340000 -0.390000 0.465000 0 0 0 0 0 0 0.437759
0.505000 0.320000 -0.355000 0.535000 0 0 0 0 0 0 0.413721
0.505000 0.340000 -0.335000 0.550000 0 0 0 0 0 0 0.434599
0.510000 0.290000 -0.345000 0.490000 0 0 0 0 0 0 0.416965
0.485000 0.325000 -0.370000 0.470000 0 0 0 0 0 0 0.440180
0.490000 0.455000 -0.365000 0.575000 0 0 0 0 0 0 0.401073
0.520000 0.290000 -0.365000 0.465000 0 0 0 0 0 0 0.449321
0.480000 0.315000 -0.335000 0.510000 0 0 0 0 0 0 0.432615
0.440000 0.380000 -0.365000 0.505000 0 0 0 0 0 0 0.444794
0.475000 0.375000 -0.365000 0.480000 0 0 0 0 0 0 0.439411
